%YAML 1.1
%TAG !u! tag:unity3d.com,2011:
--- !u!1045 &1
EditorBuildSettings:
  m_ObjectHideFlags: 0
  serializedVersion: 2
  m_Scenes:
  - enabled: 1
    path: Assets/Scenes/CH_CategorySelect.unity
    guid: c24a509e5e38cba4cb25a53ec42257e7
  - enabled: 1
    path: Assets/Scenes/CH_AN_Gameplay.unity
    guid: 8b65913e5975ed04dacf0d7dc374c9da
  - enabled: 1
    path: Assets/Scenes/QU_Gameplay.unity
    guid: 9215fd08c1eb8104aa52627d44c2f1dc
  - enabled: 1
    path: Assets/Scenes/QU_Instruction.unity
    guid: a94ded9b356d90847a00856a16a76a20
  m_configObjects: {}
